{
    "parser": "@typescript-eslint/parser",
    "plugins": ["@typescript-eslint", "jest", "react"],
    "settings": {
        "react": {
            "version": "detect"
        }
    },
    "rules": {
        "no-async-promise-executor": "off",
        "@typescript-eslint/ban-types": "off",
        "@typescript-eslint/no-non-null-assertion": "off",
        "@typescript-eslint/no-empty-interface": "off",
        "@typescript-eslint/explicit-function-return-type": [
            "error",
            {
                "allowExpressions": true
            }
        ],
        "@typescript-eslint/no-unused-vars": [
            "error",
            {
                "argsIgnorePattern": "^_",
                "varsIgnorePattern": "^_"
            }
        ]
    },
    "extends": [
        "eslint:recommended",
        "plugin:@typescript-eslint/eslint-recommended",
        "plugin:@typescript-eslint/recommended",
        "prettier/@typescript-eslint",
        "plugin:jest/recommended",
        "plugin:react/recommended"
    ]
}
